72.21.81.13
81.200.2.238
92.255.241.100
194.67.1.14
192.168.103.162
212.49.118.125
46.61.220.10
77.73.138.32
195.135.236.30
62.33.207.196
62.33.207.197
81.28.161.2
31.132.191.130
192.168.248.21
217.169.82.130
89.221.192.76
81.88.208.208
95.213.143.204
